Lab 2/Lab2 Part1/simulation/qsim/Lab2_Part1.msim.vcd
$comment
	File created using the following command:
		vcd file Lab2_Part1.msim.vcd -direction
$end
$date
	Wed Jun 27 13:25:43 2018
$end
$version
	ModelSim Version 10.5b
$end
$timescale
	1ps
$end

$scope module Lab2_Part1_vlg_vec_tst $end
$var reg 1 ! SW0 $end
$var reg 1 " SW1 $end
$var reg 1 # SW2 $end
$var reg 1 $ SW3 $end
$var wire 1 % OUT $end

$scope module i1 $end
$var wire 1 & gnd $end
$var wire 1 ' vcc $end
$var wire 1 ( unknown $end
$var tri1 1 ) devclrn $end
$var tri1 1 * devpor $end
$var tri1 1 + devoe $end
$var wire 1 , ~QUARTUS_CREATED_GND~I_combout $end
$var wire 1 - SW3~input_o $end
$var wire 1 . SW1~input_o $end
$var wire 1 / SW0~input_o $end
$var wire 1 0 SW2~input_o $end
$var wire 1 1 inst2~combout $end
$upscope $end
$upscope $end
$enddefinitions $end
#0
$dumpvars
0!
0"
0#
0$
0%
0&
1'
x(
1)
1*
1+
0,
0-
0.
0/
00
11
$end
#500000
1$
1-
#1000000
1#
0$
10
0-
#1500000
1$
1-
#2000000
1"
0#
0$
1.
00
0-
#2500000
1$
1-
#3000000
1#
0$
10
0-
#3500000
1$
1-
#4000000
1!
0"
0#
0$
1/
0.
00
0-
#4500000
1$
1-
#5000000
1#
0$
10
0-
01
1%
#5500000
1$
1-
11
0%
#6000000
1"
0#
0$
1.
00
0-
#6500000
1$
1-
#7000000
1#
0$
10
0-
#7500000
1$
1-
